Ploty
…
set.seed(1551)

data(rest_inspec)
ri_md = 
  rest_inspec %>% 
  select(boro, critical_flag, cuisine_description, inspection_date, score) %>% 
  filter(!is.na(score)) %>% 
  sample_n(5000)
ri_md %>% 
  group_by(cuisine_description) %>% 
  summarize(n=sum())

## # A tibble: 78 x 2
##    cuisine_description     n
##    <chr>               <int>
##  1 Afghan                  0
##  2 African                 0
##  3 American                0
##  4 Armenian                0
##  5 Asian                   0
##  6 Australian              0
##  7 Bagels/Pretzels         0
##  8 Bakery                  0
##  9 Bangladeshi             0
## 10 Barbecue                0
## # ... with 68 more rows
…
